5 导入导出文件 – R语言零基础入门
…
注释

这里的foreign::read.spss()使用了包的名字::函数名字这种方法，意思是指定使用foreign中的read.spss()函数。有时候不同的R包中会有相同名字的函数，使用这种方法可以避免混淆。

# haven包读取
library(haven)
spss <- read_sav("datasets/例03-05.sav")

spss
## # A tibble: 36 × 2
##       no    hb
##    <dbl> <dbl>
##  1     1   112
##  2     2   137
##  3     3   129
##  4     4   126
##  5     5    88
##  6     6    90
##  7     7   105
##  8     8   178
##  9     9   130
## 10    10   128
## # ℹ 26 more rows
…
