14 R绘图入门 – R语言零基础入门
…
从始至终，数据分析者都在数据层面上思考问题，而不是拿着水彩笔和调色板在那里一笔一划作图，而计算机程序员则倾向于画点画线。Leland-Wilkinson的著作在理论上改善了这种状况，他提出了一套图形语法，让我们在考虑如何构建一幅图形的时候不再陷在具体的图形元素里面，而是把图形拆分为一些互相独立并且可以自由组合的成分。这套语法提出来之后他自己也做了一套软件，但显然这套软件没有被广泛采用；幸运的是，Hadley-Wickham在R语言中把这套想法巧妙地实现了。

为了说明这种语法的思想，我们考虑图形中的一个成分——坐标系。常见的坐标系有两种：笛卡尔坐标系和极坐标系。在语法中，它们属于一个成分，可自由拆卸替换。笛卡尔坐标系下的条形图实际上可以对应极坐标系下的饼图，因为条形图的高可以对应饼图的角度，本质上没什么区别。因此在ggplot2中，从一幅条形图过渡到饼图，只需要加极少量的代码，把坐标系换一下就可以了。如果我们用纸笔模型，则可以想象，这完全是不同的两幅图，一幅图里面要画的是矩形，另一幅图要画扇形。

更多的细节请看书，这里我们只是简略说明用语法画图对用纸笔画图来说在思维上的优越性；前者是说话后者是说字。

数就是图，图就是数

14.2.1 示例数据

使用ggplot2自带的数据，这是一个不同汽车的耗油量数据。

library(ggplot2)
mpg
## # A tibble: 234 × 11
##    manufacturer model      displ  year   cyl trans drv     cty   hwy fl    class
##    <chr>        <chr>      <dbl> <int> <int> <chr> <chr> <int> <int> <chr> <chr>
##  1 audi         a4           1.8  1999     4 auto… f        18    29 p     comp…
##  2 audi         a4           1.8  1999     4 manu… f        21    29 p     comp…
##  3 audi         a4           2    2008     4 manu… f        20    31 p     comp…
##  4 audi         a4           2    2008     4 auto… f        21    30 p     comp…
##  5 audi         a4           2.8  1999     6 auto… f        16    26 p     comp…
##  6 audi         a4           2.8  1999     6 manu… f        18    26 p     comp…
##  7 audi         a4           3.1  2008     6 auto… f        18    27 p     comp…
##  8 audi         a4 quattro   1.8  1999     4 manu… 4        18    26 p     comp…
##  9 audi         a4 quattro   1.8  1999     4 auto… 4        16    25 p     comp…
## 10 audi         a4 quattro   2    2008     4 manu… 4        20    28 p     comp…
## # ℹ 224 more rows
…
