15 tidyverse简介 – R语言零基础入门
…
使用ggplot2自带的数据进行说明，这是一个不同汽车的耗油量数据。

library(tidyverse)
## ── Attaching core tidyverse packages ──────────────────────── tidyverse 2.0.0 ──
## ✔ dplyr     1.1.4     ✔ readr     2.1.5
## ✔ forcats   1.0.0     ✔ stringr   1.5.1
## ✔ ggplot2   3.5.2     ✔ tibble    3.2.1
## ✔ lubridate 1.9.4     ✔ tidyr     1.3.1
## ✔ purrr     1.0.4     
## ── Conflicts ────────────────────────────────────────── tidyverse_conflicts() ──
## ✖ dplyr::filter() masks stats::filter()
## ✖ dplyr::lag()    masks stats::lag()
## ℹ Use the conflicted package (<http://conflicted.r-lib.org/>) to force all conflicts to become errors
mpg
## # A tibble: 234 × 11
##    manufacturer model      displ  year   cyl trans drv     cty   hwy fl    class
##    <chr>        <chr>      <dbl> <int> <int> <chr> <chr> <int> <int> <chr> <chr>
##  1 audi         a4           1.8  1999     4 auto… f        18    29 p     comp…
##  2 audi         a4           1.8  1999     4 manu… f        21    29 p     comp…
##  3 audi         a4           2    2008     4 manu… f        20    31 p     comp…
##  4 audi         a4           2    2008     4 auto… f        21    30 p     comp…
##  5 audi         a4           2.8  1999     6 auto… f        16    26 p     comp…
##  6 audi         a4           2.8  1999     6 manu… f        18    26 p     comp…
##  7 audi         a4           3.1  2008     6 auto… f        18    27 p     comp…
##  8 audi         a4 quattro   1.8  1999     4 manu… 4        18    26 p     comp…
##  9 audi         a4 quattro   1.8  1999     4 auto… 4        16    25 p     comp…
## 10 audi         a4 quattro   2    2008     4 manu… 4        20    28 p     comp…
## # ℹ 224 more rows
…
所有函数使用%>%连接起来，中间不需要取名字，各个函数的名字也十分形象，代码很容易看懂。管道符左侧函数的结果可以作为右侧函数的输入。

我们一步一步的分解看一下：

# 第一步
select(mpg, manufacturer, cyl, drv, hwy)
## # A tibble: 234 × 4
##    manufacturer   cyl drv     hwy
##    <chr>        <int> <chr> <int>
##  1 audi             4 f        29
##  2 audi             4 f        29
##  3 audi             4 f        31
##  4 audi             4 f        30
##  5 audi             6 f        26
##  6 audi             6 f        26
##  7 audi             6 f        27
##  8 audi             4 4        26
##  9 audi             4 4        25
## 10 audi             4 4        28
## # ℹ 224 more rows
…
